<?xml version="1.0" encoding="UTF-8"?>
<snippets>
  <file name="c:\inzynierka\iaac\sobelfilter.cpp" md5="e68fd681d3a313d95deb66efd2a3d8c3">
    <snippet line="319">
      <line line="316"/>
      <line line="317">    size_t csize = content.size();</line>
      <line line="318">    const char* kernelCharArray = new char[content.size()];</line>
      <line line="319">    kernelCharArray = content.c_str();</line>
      <line line="320"/>
    </snippet>
    <snippet line="323">
      <line line="320"/>
      <line line="321">    /* Get Platform and Device Info */</line>
      <line line="322">    ret = clGetPlatformIDs(1, &amp;platform_id, &amp;ret_num_platforms);</line>
      <line line="323">    ret = clGetDeviceIDs(platform_id, CL_DEVICE_TYPE_DEFAULT, 1, &amp;device_id, &amp;ret_num_devices);</line>
      <line line="324"/>
    </snippet>
  </file>
</snippets>
